%YAML 1.1
%TAG !u! tag:unity3d.com,2011:
--- !u!74 &7400000
AnimationClip:
  m_ObjectHideFlags: 0
  m_PrefabParentObject: {fileID: 0}
  m_PrefabInternal: {fileID: 0}
  m_Name: spiderDrag
  serializedVersion: 6
  m_Legacy: 0
  m_Compressed: 0
  m_UseHighQualityCurve: 1
  m_RotationCurves: []
  m_CompressedRotationCurves: []
  m_EulerCurves: []
  m_PositionCurves:
  - curve:
      serializedVersion: 2
      m_Curve:
      - time: 0
        value: {x: -9.09, y: 6.1, z: 28.59}
        inSlope: {x: 0, y: 0, z: -3.231818}
        outSlope: {x: 0, y: 0, z: -3.231818}
        tangentMode: 0
      - time: 1.4666667
        value: {x: -9.09, y: 6.1, z: 23.85}
        inSlope: {x: 0, y: 0, z: -1.6431823}
        outSlope: {x: 0, y: 0, z: -1.6431823}
        tangentMode: 0
      - time: 1.8333334
        value: {x: -9.09, y: 6.1, z: 23.83}
        inSlope: {x: 0, y: 0, z: -1.8585235}
        outSlope: {x: 0, y: 0, z: -1.8585235}
        tangentMode: 0
      - time: 3.4333334
        value: {x: -9.09, y: 6.1, z: 17.97}
        inSlope: {x: 0, y: 0, z: -1.9338812}
        outSlope: {x: 0, y: 0, z: -1.9338812}
        tangentMode: 0
      - time: 4.0666666
        value: {x: -9.09, y: 6.1, z: 17.84}
        inSlope: {x: 0, y: 0, z: -3.2088811}
        outSlope: {x: 0, y: 0, z: -3.2088811}
        tangentMode: 0
      - time: 5.6666665
        value: {x: -9.09, y: 6.1, z: 7.9}
        inSlope: {x: 0, y: 0, z: -2.9262505}
        outSlope: {x: 0, y: 0, z: -2.9262505}
        tangentMode: 0
      - time: 6.1666665
        value: {x: -9.09, y: 6.1, z: 8.08}
        inSlope: {x: 0, y: 0, z: -2.6377773}
        outSlope: {x: 0, y: 0, z: -2.6377773}
        tangentMode: 0
      - time: 8.416667
        value: {x: -9.09, y: 6.1, z: -4.6}
        inSlope: {x: 0, y: 0, z: -5.6355543}
        outSlope: {x: 0, y: 0, z: -5.6355543}
        tangentMode: 0
      m_PreInfinity: 2
      m_PostInfinity: 2
      m_RotationOrder: 4
    path: 
  m_ScaleCurves: []
  m_FloatCurves: []
  m_PPtrCurves: []
  m_SampleRate: 60
  m_WrapMode: 0
  m_Bounds:
    m_Center: {x: 0, y: 0, z: 0}
    m_Extent: {x: 0, y: 0, z: 0}
  m_ClipBindingConstant:
    genericBindings:
    - path: 0
      attribute: 1
      script: {fileID: 0}
      classID: 4
      customType: 0
      isPPtrCurve: 0
    pptrCurveMapping: []
  m_AnimationClipSettings:
    serializedVersion: 2
    m_AdditiveReferencePoseClip: {fileID: 0}
    m_AdditiveReferencePoseTime: 0
    m_StartTime: 0
    m_StopTime: 8.416667
    m_OrientationOffsetY: 0
    m_Level: 0
    m_CycleOffset: 0
    m_HasAdditiveReferencePose: 0
    m_LoopTime: 1
    m_LoopBlend: 0
    m_LoopBlendOrientation: 0
    m_LoopBlendPositionY: 0
    m_LoopBlendPositionXZ: 0
    m_KeepOriginalOrientation: 0
    m_KeepOriginalPositionY: 1
    m_KeepOriginalPositionXZ: 0
    m_HeightFromFeet: 0
    m_Mirror: 0
  m_EditorCurves:
  - curve:
      serializedVersion: 2
      m_Curve:
      - time: 0
        value: -9.09
        inSlope: 0
        outSlope: 0
        tangentMode: 10
      - time: 1.4666667
        value: -9.09
        inSlope: 0
        outSlope: 0
        tangentMode: 10
      - time: 1.8333334
        value: -9.09
        inSlope: 0
        outSlope: 0
        tangentMode: 10
      - time: 3.4333334
        value: -9.09
        inSlope: 0
        outSlope: 0
        tangentMode: 10
      - time: 4.0666666
        value: -9.09
        inSlope: 0
        outSlope: 0
        tangentMode: 10
      - time: 5.6666665
        value: -9.09
        inSlope: 0
        outSlope: 0
        tangentMode: 10
      - time: 6.1666665
        value: -9.09
        inSlope: 0
        outSlope: 0
        tangentMode: 10
      - time: 8.416667
        value: -9.09
        inSlope: 0
        outSlope: 0
        tangentMode: 10
      m_PreInfinity: 2
      m_PostInfinity: 2
      m_RotationOrder: 4
    attribute: m_LocalPosition.x
    path: 
    classID: 4
    script: {fileID: 0}
  - curve:
      serializedVersion: 2
      m_Curve:
      - time: 0
        value: 6.1
        inSlope: 0
        outSlope: 0
        tangentMode: 10
      - time: 1.4666667
        value: 6.1
        inSlope: 0
        outSlope: 0
        tangentMode: 10
      - time: 1.8333334
        value: 6.1
        inSlope: 0
        outSlope: 0
        tangentMode: 10
      - time: 3.4333334
        value: 6.1
        inSlope: 0
        outSlope: 0
        tangentMode: 10
      - time: 4.0666666
        value: 6.1
        inSlope: 0
        outSlope: 0
        tangentMode: 10
      - time: 5.6666665
        value: 6.1
        inSlope: 0
        outSlope: 0
        tangentMode: 10
      - time: 6.1666665
        value: 6.1
        inSlope: 0
        outSlope: 0
        tangentMode: 10
      - time: 8.416667
        value: 6.1
        inSlope: 0
        outSlope: 0
        tangentMode: 10
      m_PreInfinity: 2
      m_PostInfinity: 2
      m_RotationOrder: 4
    attribute: m_LocalPosition.y
    path: 
    classID: 4
    script: {fileID: 0}
  - curve:
      serializedVersion: 2
      m_Curve:
      - time: 0
        value: 28.59
        inSlope: -3.231818
        outSlope: -3.231818
        tangentMode: 10
      - time: 1.4666667
        value: 23.85
        inSlope: -1.6431823
        outSlope: -1.6431823
        tangentMode: 10
      - time: 1.8333334
        value: 23.83
        inSlope: -1.8585235
        outSlope: -1.8585235
        tangentMode: 10
      - time: 3.4333334
        value: 17.97
        inSlope: -1.9338812
        outSlope: -1.9338812
        tangentMode: 10
      - time: 4.0666666
        value: 17.84
        inSlope: -3.2088811
        outSlope: -3.2088811
        tangentMode: 10
      - time: 5.6666665
        value: 7.9
        inSlope: -2.9262505
        outSlope: -2.9262505
        tangentMode: 10
      - time: 6.1666665
        value: 8.08
        inSlope: -2.6377773
        outSlope: -2.6377773
        tangentMode: 10
      - time: 8.416667
        value: -4.6
        inSlope: -5.6355543
        outSlope: -5.6355543
        tangentMode: 10
      m_PreInfinity: 2
      m_PostInfinity: 2
      m_RotationOrder: 4
    attribute: m_LocalPosition.z
    path: 
    classID: 4
    script: {fileID: 0}
  m_EulerEditorCurves: []
  m_HasGenericRootTransform: 1
  m_HasMotionFloatCurves: 0
  m_GenerateMotionCurves: 0
  m_Events: []
